2025-11-22 09:38:35.023 -04:00 [INF] Starting RealEstate API application {}
2025-11-22 09:38:38.022 -04:00 [INF] RealEstate API application started successfully {}
2025-11-22 09:38:54.828 -04:00 [INF] HTTP GET /api/clients  - Request Body: Empty {"SourceContext":"RealEstate.API.Middleware.RequestResponseLoggingMiddleware","RequestId":"0HNH9PHTGIRB7:00000001","RequestPath":"/api/clients","ConnectionId":"0HNH9PHTGIRB7"}
2025-11-22 09:38:54.849 -04:00 [WRN] Failed to determine the https port for redirect. {"EventId":{"Id":3,"Name":"FailedToDeterminePort"},"SourceContext":"Microsoft.AspNetCore.HttpsPolicy.HttpsRedirectionMiddleware","RequestId":"0HNH9PHTGIRB7:00000001","RequestPath":"/api/clients","ConnectionId":"0HNH9PHTGIRB7"}
2025-11-22 09:38:54.873 -04:00 [INF] HTTP GET /api/clients responded 404 in 21.8861 ms {"SourceContext":"Serilog.AspNetCore.RequestLoggingMiddleware","RequestId":"0HNH9PHTGIRB7:00000001","ConnectionId":"0HNH9PHTGIRB7"}
2025-11-22 09:38:54.887 -04:00 [INF] HTTP GET /api/clients responded 404 in 67ms - Response: Empty {"SourceContext":"RealEstate.API.Middleware.RequestResponseLoggingMiddleware","RequestId":"0HNH9PHTGIRB7:00000001","RequestPath":"/api/clients","ConnectionId":"0HNH9PHTGIRB7"}
2025-11-22 09:38:58.361 -04:00 [INF] HTTP GET /api/clients  - Request Body: Empty {"SourceContext":"RealEstate.API.Middleware.RequestResponseLoggingMiddleware","RequestId":"0HNH9PHTGIRB7:00000002","RequestPath":"/api/clients","ConnectionId":"0HNH9PHTGIRB7"}
2025-11-22 09:38:58.368 -04:00 [INF] HTTP GET /api/clients responded 404 in 0.7055 ms {"SourceContext":"Serilog.AspNetCore.RequestLoggingMiddleware","RequestId":"0HNH9PHTGIRB7:00000002","ConnectionId":"0HNH9PHTGIRB7"}
2025-11-22 09:38:58.373 -04:00 [INF] HTTP GET /api/clients responded 404 in 11ms - Response: Empty {"SourceContext":"RealEstate.API.Middleware.RequestResponseLoggingMiddleware","RequestId":"0HNH9PHTGIRB7:00000002","RequestPath":"/api/clients","ConnectionId":"0HNH9PHTGIRB7"}
2025-11-22 09:39:04.525 -04:00 [INF] HTTP GET /health  - Request Body: Empty {"SourceContext":"RealEstate.API.Middleware.RequestResponseLoggingMiddleware","RequestId":"0HNH9PHTGIRB8:00000001","RequestPath":"/health","ConnectionId":"0HNH9PHTGIRB8"}
2025-11-22 09:39:04.531 -04:00 [INF] HTTP GET /health responded 200 in 3.0986 ms {"SourceContext":"Serilog.AspNetCore.RequestLoggingMiddleware","RequestId":"0HNH9PHTGIRB8:00000001","ConnectionId":"0HNH9PHTGIRB8"}
2025-11-22 09:39:04.534 -04:00 [INF] HTTP GET /health responded 200 in 9ms - Response: Healthy {"SourceContext":"RealEstate.API.Middleware.RequestResponseLoggingMiddleware","RequestId":"0HNH9PHTGIRB8:00000001","RequestPath":"/health","ConnectionId":"0HNH9PHTGIRB8"}
2025-11-22 09:39:04.571 -04:00 [INF] HTTP GET /api/v1.0/clients  - Request Body: Empty {"SourceContext":"RealEstate.API.Middleware.RequestResponseLoggingMiddleware","RequestId":"0HNH9PHTGIRB8:00000002","RequestPath":"/api/v1.0/clients","ConnectionId":"0HNH9PHTGIRB8"}
2025-11-22 09:39:04.692 -04:00 [INF] HTTP GET /api/v1.0/clients responded 200 in 118.0970 ms {"SourceContext":"Serilog.AspNetCore.RequestLoggingMiddleware","RequestId":"0HNH9PHTGIRB8:00000002","ConnectionId":"0HNH9PHTGIRB8"}
2025-11-22 09:39:04.696 -04:00 [INF] HTTP GET /api/v1.0/clients responded 200 in 124ms - Response: [{"id":1,"name":"Juan Perez","email":"juan.perez@example.com","phoneNumber":"555-0101"},{"id":2,"name":"Maria Garcia","email":"maria.garcia@example.com","phoneNumber":"555-0102"},{"id":3,"name":"Carlos Lopez","email":"carlos.lopez@example.com","phoneNumber":"555-0103"},{"id":7,"name":"Test Client","email":"test@example.com","phoneNumber":"555-1234"}] {"SourceContext":"RealEstate.API.Middleware.RequestResponseLoggingMiddleware","RequestId":"0HNH9PHTGIRB8:00000002","RequestPath":"/api/v1.0/clients","ConnectionId":"0HNH9PHTGIRB8"}
2025-11-22 09:39:04.785 -04:00 [INF] HTTP GET /api/v1.0/clients  - Request Body: Empty {"SourceContext":"RealEstate.API.Middleware.RequestResponseLoggingMiddleware","RequestId":"0HNH9PHTGIRB8:00000003","RequestPath":"/api/v1.0/clients","ConnectionId":"0HNH9PHTGIRB8"}
2025-11-22 09:39:04.859 -04:00 [INF] HTTP GET /api/v1.0/clients responded 200 in 70.7252 ms {"SourceContext":"Serilog.AspNetCore.RequestLoggingMiddleware","RequestId":"0HNH9PHTGIRB8:00000003","ConnectionId":"0HNH9PHTGIRB8"}
2025-11-22 09:39:04.864 -04:00 [INF] HTTP GET /api/v1.0/clients responded 200 in 79ms - Response: [{"id":1,"name":"Juan Perez","email":"juan.perez@example.com","phoneNumber":"555-0101"},{"id":2,"name":"Maria Garcia","email":"maria.garcia@example.com","phoneNumber":"555-0102"},{"id":3,"name":"Carlos Lopez","email":"carlos.lopez@example.com","phoneNumber":"555-0103"},{"id":7,"name":"Test Client","email":"test@example.com","phoneNumber":"555-1234"}] {"SourceContext":"RealEstate.API.Middleware.RequestResponseLoggingMiddleware","RequestId":"0HNH9PHTGIRB8:00000003","RequestPath":"/api/v1.0/clients","ConnectionId":"0HNH9PHTGIRB8"}
2025-11-22 09:39:04.915 -04:00 [INF] HTTP POST /api/v1.0/clients  - Request Body: {
    "email":  "invalid-email",
    "name":  "",
    "phoneNumber":  "123"
} {"SourceContext":"RealEstate.API.Middleware.RequestResponseLoggingMiddleware","RequestId":"0HNH9PHTGIRB8:00000004","RequestPath":"/api/v1.0/clients","ConnectionId":"0HNH9PHTGIRB8"}
2025-11-22 09:39:05.008 -04:00 [INF] HTTP POST /api/v1.0/clients responded 400 in 88.4472 ms {"SourceContext":"Serilog.AspNetCore.RequestLoggingMiddleware","RequestId":"0HNH9PHTGIRB8:00000004","ConnectionId":"0HNH9PHTGIRB8"}
2025-11-22 09:39:05.011 -04:00 [INF] HTTP POST /api/v1.0/clients responded 400 in 98ms - Response: {"type":"https://tools.ietf.org/html/rfc9110#section-15.5.1","title":"One or more validation errors occurred.","status":400,"errors":{"Name":["Name is required"],"Email":["Invalid email format"]},"traceId":"00-9435052e6d16ed21914b78da750736f7-268b1b0d28d8523f-00"} {"SourceContext":"RealEstate.API.Middleware.RequestResponseLoggingMiddleware","RequestId":"0HNH9PHTGIRB8:00000004","RequestPath":"/api/v1.0/clients","ConnectionId":"0HNH9PHTGIRB8"}
2025-11-22 09:39:05.271 -04:00 [INF] HTTP POST /api/v1.0/clients  - Request Body: {
    "email":  "testv1@example.com",
    "name":  "Test Client API v1",
    "phoneNumber":  "555-9999"
} {"SourceContext":"RealEstate.API.Middleware.RequestResponseLoggingMiddleware","RequestId":"0HNH9PHTGIRB8:00000005","RequestPath":"/api/v1.0/clients","ConnectionId":"0HNH9PHTGIRB8"}
2025-11-22 09:39:05.433 -04:00 [INF] HTTP POST /api/v1.0/clients responded 201 in 157.7011 ms {"SourceContext":"Serilog.AspNetCore.RequestLoggingMiddleware","RequestId":"0HNH9PHTGIRB8:00000005","ConnectionId":"0HNH9PHTGIRB8"}
2025-11-22 09:39:05.436 -04:00 [INF] HTTP POST /api/v1.0/clients responded 201 in 164ms - Response: {"id":8,"name":"Test Client API v1","email":"testv1@example.com","phoneNumber":"555-9999"} {"SourceContext":"RealEstate.API.Middleware.RequestResponseLoggingMiddleware","RequestId":"0HNH9PHTGIRB8:00000005","RequestPath":"/api/v1.0/clients","ConnectionId":"0HNH9PHTGIRB8"}
2025-11-22 09:49:13.893 -04:00 [INF] Starting RealEstate API application {}
2025-11-22 09:49:15.034 -04:00 [INF] RealEstate API application started successfully {}
2025-11-22 09:49:51.747 -04:00 [INF] HTTP GET /api/v1.0/clients ?pageNumber=1&pageSize=2 - Request Body: Empty {"SourceContext":"RealEstate.API.Middleware.RequestResponseLoggingMiddleware","RequestId":"0HNH9PO19I8CR:00000001","RequestPath":"/api/v1.0/clients","ConnectionId":"0HNH9PO19I8CR"}
2025-11-22 09:49:51.758 -04:00 [WRN] Failed to determine the https port for redirect. {"EventId":{"Id":3,"Name":"FailedToDeterminePort"},"SourceContext":"Microsoft.AspNetCore.HttpsPolicy.HttpsRedirectionMiddleware","RequestId":"0HNH9PO19I8CR:00000001","RequestPath":"/api/v1.0/clients","ConnectionId":"0HNH9PO19I8CR"}
2025-11-22 09:49:51.889 -04:00 [WRN] The query uses a row limiting operator ('Skip'/'Take') without an 'OrderBy' operator. This may lead to unpredictable results. If the 'Distinct' operator is used after 'OrderBy', then make sure to use the 'OrderBy' operator after 'Distinct' as the ordering would otherwise get erased. {"EventId":{"Id":10102,"Name":"Microsoft.EntityFrameworkCore.Query.RowLimitingOperationWithoutOrderByWarning"},"SourceContext":"Microsoft.EntityFrameworkCore.Query","ActionId":"220c65d4-a82e-4167-a1ff-75822ca7c1ea","ActionName":"RealEstate.API.Controllers.ClientsController.GetClients (RealEstate.API)","RequestId":"0HNH9PO19I8CR:00000001","RequestPath":"/api/v1.0/clients","ConnectionId":"0HNH9PO19I8CR"}
2025-11-22 09:49:51.896 -04:00 [WRN] The query uses a row limiting operator ('Skip'/'Take') without an 'OrderBy' operator. This may lead to unpredictable results. If the 'Distinct' operator is used after 'OrderBy', then make sure to use the 'OrderBy' operator after 'Distinct' as the ordering would otherwise get erased. {"EventId":{"Id":10102,"Name":"Microsoft.EntityFrameworkCore.Query.RowLimitingOperationWithoutOrderByWarning"},"SourceContext":"Microsoft.EntityFrameworkCore.Query","ActionId":"220c65d4-a82e-4167-a1ff-75822ca7c1ea","ActionName":"RealEstate.API.Controllers.ClientsController.GetClients (RealEstate.API)","RequestId":"0HNH9PO19I8CR:00000001","RequestPath":"/api/v1.0/clients","ConnectionId":"0HNH9PO19I8CR"}
2025-11-22 09:49:51.947 -04:00 [INF] HTTP GET /api/v1.0/clients responded 200 in 190.8461 ms {"SourceContext":"Serilog.AspNetCore.RequestLoggingMiddleware","RequestId":"0HNH9PO19I8CR:00000001","ConnectionId":"0HNH9PO19I8CR"}
2025-11-22 09:49:51.959 -04:00 [INF] HTTP GET /api/v1.0/clients responded 200 in 215ms - Response: {"items":[{"id":1,"name":"Juan Perez","email":"juan.perez@example.com","phoneNumber":"555-0101"},{"id":2,"name":"Maria Garcia","email":"maria.garcia@example.com","phoneNumber":"555-0102"}],"pageNumber":1,"pageSize":2,"totalCount":5,"totalPages":3,"hasPrevious":false,"hasNext":true} {"SourceContext":"RealEstate.API.Middleware.RequestResponseLoggingMiddleware","RequestId":"0HNH9PO19I8CR:00000001","RequestPath":"/api/v1.0/clients","ConnectionId":"0HNH9PO19I8CR"}
2025-11-22 09:49:51.994 -04:00 [INF] HTTP GET /api/v1.0/properties ?pageNumber=1&pageSize=3 - Request Body: Empty {"SourceContext":"RealEstate.API.Middleware.RequestResponseLoggingMiddleware","RequestId":"0HNH9PO19I8CR:00000002","RequestPath":"/api/v1.0/properties","ConnectionId":"0HNH9PO19I8CR"}
2025-11-22 09:49:52.061 -04:00 [WRN] The query uses a row limiting operator ('Skip'/'Take') without an 'OrderBy' operator. This may lead to unpredictable results. If the 'Distinct' operator is used after 'OrderBy', then make sure to use the 'OrderBy' operator after 'Distinct' as the ordering would otherwise get erased. {"EventId":{"Id":10102,"Name":"Microsoft.EntityFrameworkCore.Query.RowLimitingOperationWithoutOrderByWarning"},"SourceContext":"Microsoft.EntityFrameworkCore.Query","ActionId":"3d780b8d-be52-4524-8995-bd4adc2b9c1c","ActionName":"RealEstate.API.Controllers.PropertiesController.GetProperties (RealEstate.API)","RequestId":"0HNH9PO19I8CR:00000002","RequestPath":"/api/v1.0/properties","ConnectionId":"0HNH9PO19I8CR"}
2025-11-22 09:49:52.066 -04:00 [WRN] The query uses a row limiting operator ('Skip'/'Take') without an 'OrderBy' operator. This may lead to unpredictable results. If the 'Distinct' operator is used after 'OrderBy', then make sure to use the 'OrderBy' operator after 'Distinct' as the ordering would otherwise get erased. {"EventId":{"Id":10102,"Name":"Microsoft.EntityFrameworkCore.Query.RowLimitingOperationWithoutOrderByWarning"},"SourceContext":"Microsoft.EntityFrameworkCore.Query","ActionId":"3d780b8d-be52-4524-8995-bd4adc2b9c1c","ActionName":"RealEstate.API.Controllers.PropertiesController.GetProperties (RealEstate.API)","RequestId":"0HNH9PO19I8CR:00000002","RequestPath":"/api/v1.0/properties","ConnectionId":"0HNH9PO19I8CR"}
2025-11-22 09:49:52.090 -04:00 [INF] HTTP GET /api/v1.0/properties responded 200 in 92.7379 ms {"SourceContext":"Serilog.AspNetCore.RequestLoggingMiddleware","RequestId":"0HNH9PO19I8CR:00000002","ConnectionId":"0HNH9PO19I8CR"}
2025-11-22 09:49:52.093 -04:00 [INF] HTTP GET /api/v1.0/properties responded 200 in 99ms - Response: {"items":[{"id":1,"address":"123 Main St, Cityville","price":250000.00,"type":"Sale","description":"Beautiful 3-bedroom house","ownerId":1},{"id":2,"address":"456 Oak Ave, Townburg","price":1200.00,"type":"Rent","description":"Cozy 2-bedroom apartment","ownerId":2},{"id":3,"address":"789 Pine Ln, Villageton","price":350000.00,"type":"Sale","description":"Spacious villa with garden","ownerId":1}],"pageNumber":1,"pageSize":3,"totalCount":4,"totalPages":2,"hasPrevious":false,"hasNext":true} {"SourceContext":"RealEstate.API.Middleware.RequestResponseLoggingMiddleware","RequestId":"0HNH9PO19I8CR:00000002","RequestPath":"/api/v1.0/properties","ConnectionId":"0HNH9PO19I8CR"}
2025-11-22 09:49:52.110 -04:00 [INF] HTTP GET /api/v1.0/transactions ?pageNumber=1&pageSize=5 - Request Body: Empty {"SourceContext":"RealEstate.API.Middleware.RequestResponseLoggingMiddleware","RequestId":"0HNH9PO19I8CR:00000003","RequestPath":"/api/v1.0/transactions","ConnectionId":"0HNH9PO19I8CR"}
2025-11-22 09:49:52.141 -04:00 [WRN] The query uses a row limiting operator ('Skip'/'Take') without an 'OrderBy' operator. This may lead to unpredictable results. If the 'Distinct' operator is used after 'OrderBy', then make sure to use the 'OrderBy' operator after 'Distinct' as the ordering would otherwise get erased. {"EventId":{"Id":10102,"Name":"Microsoft.EntityFrameworkCore.Query.RowLimitingOperationWithoutOrderByWarning"},"SourceContext":"Microsoft.EntityFrameworkCore.Query","ActionId":"c4ab4d2f-8bd0-481a-9765-7052cbdef7db","ActionName":"RealEstate.API.Controllers.TransactionsController.GetTransactions (RealEstate.API)","RequestId":"0HNH9PO19I8CR:00000003","RequestPath":"/api/v1.0/transactions","ConnectionId":"0HNH9PO19I8CR"}
2025-11-22 09:49:52.148 -04:00 [WRN] The query uses a row limiting operator ('Skip'/'Take') without an 'OrderBy' operator. This may lead to unpredictable results. If the 'Distinct' operator is used after 'OrderBy', then make sure to use the 'OrderBy' operator after 'Distinct' as the ordering would otherwise get erased. {"EventId":{"Id":10102,"Name":"Microsoft.EntityFrameworkCore.Query.RowLimitingOperationWithoutOrderByWarning"},"SourceContext":"Microsoft.EntityFrameworkCore.Query","ActionId":"c4ab4d2f-8bd0-481a-9765-7052cbdef7db","ActionName":"RealEstate.API.Controllers.TransactionsController.GetTransactions (RealEstate.API)","RequestId":"0HNH9PO19I8CR:00000003","RequestPath":"/api/v1.0/transactions","ConnectionId":"0HNH9PO19I8CR"}
2025-11-22 09:49:52.200 -04:00 [INF] HTTP GET /api/v1.0/transactions responded 200 in 85.5508 ms {"SourceContext":"Serilog.AspNetCore.RequestLoggingMiddleware","RequestId":"0HNH9PO19I8CR:00000003","ConnectionId":"0HNH9PO19I8CR"}
2025-11-22 09:49:52.205 -04:00 [INF] HTTP GET /api/v1.0/transactions responded 200 in 95ms - Response: {"items":[{"id":2,"propertyId":1,"propertyAddress":"123 Main St, Cityville","clientId":2,"clientName":"Maria Garcia","date":"2025-11-16T22:43:49.497345Z","amount":250000.00,"transactionType":"Sale"},{"id":1,"propertyId":2,"propertyAddress":"456 Oak Ave, Townburg","clientId":3,"clientName":"Carlos Lopez","date":"2025-11-11T22:43:49.497305Z","amount":1200.00,"transactionType":"Rent"}],"pageNumber":1,"pageSize":5,"totalCount":2,"totalPages":1,"hasPrevious":false,"hasNext":false} {"SourceContext":"RealEstate.API.Middleware.RequestResponseLoggingMiddleware","RequestId":"0HNH9PO19I8CR:00000003","RequestPath":"/api/v1.0/transactions","ConnectionId":"0HNH9PO19I8CR"}
2025-11-22 09:49:52.221 -04:00 [INF] HTTP GET /api/v1.0/clients/1  - Request Body: Empty {"SourceContext":"RealEstate.API.Middleware.RequestResponseLoggingMiddleware","RequestId":"0HNH9PO19I8CR:00000004","RequestPath":"/api/v1.0/clients/1","ConnectionId":"0HNH9PO19I8CR"}
2025-11-22 09:49:52.303 -04:00 [INF] HTTP GET /api/v1.0/clients/1 responded 200 in 78.4465 ms {"SourceContext":"Serilog.AspNetCore.RequestLoggingMiddleware","RequestId":"0HNH9PO19I8CR:00000004","ConnectionId":"0HNH9PO19I8CR"}
2025-11-22 09:49:52.307 -04:00 [INF] HTTP GET /api/v1.0/clients/1 responded 200 in 86ms - Response: {"id":1,"name":"Juan Perez","email":"juan.perez@example.com","phoneNumber":"555-0101"} {"SourceContext":"RealEstate.API.Middleware.RequestResponseLoggingMiddleware","RequestId":"0HNH9PO19I8CR:00000004","RequestPath":"/api/v1.0/clients/1","ConnectionId":"0HNH9PO19I8CR"}
2025-11-22 09:49:52.323 -04:00 [INF] HTTP POST /api/v1.0/clients  - Request Body: {
    "email":  "pagination@test.com",
    "name":  "Pagination Test Client",
    "phoneNumber":  "555-PAGI"
} {"SourceContext":"RealEstate.API.Middleware.RequestResponseLoggingMiddleware","RequestId":"0HNH9PO19I8CR:00000005","RequestPath":"/api/v1.0/clients","ConnectionId":"0HNH9PO19I8CR"}
2025-11-22 09:49:52.455 -04:00 [INF] HTTP POST /api/v1.0/clients responded 201 in 128.6552 ms {"SourceContext":"Serilog.AspNetCore.RequestLoggingMiddleware","RequestId":"0HNH9PO19I8CR:00000005","ConnectionId":"0HNH9PO19I8CR"}
2025-11-22 09:49:52.459 -04:00 [INF] HTTP POST /api/v1.0/clients responded 201 in 136ms - Response: {"id":9,"name":"Pagination Test Client","email":"pagination@test.com","phoneNumber":"555-PAGI"} {"SourceContext":"RealEstate.API.Middleware.RequestResponseLoggingMiddleware","RequestId":"0HNH9PO19I8CR:00000005","RequestPath":"/api/v1.0/clients","ConnectionId":"0HNH9PO19I8CR"}
2025-11-22 09:50:05.883 -04:00 [INF] HTTP GET /api/clients  - Request Body: Empty {"SourceContext":"RealEstate.API.Middleware.RequestResponseLoggingMiddleware","RequestId":"0HNH9PO19I8CT:00000001","RequestPath":"/api/clients","ConnectionId":"0HNH9PO19I8CT"}
2025-11-22 09:50:05.889 -04:00 [INF] HTTP GET /api/clients responded 404 in 0.2179 ms {"SourceContext":"Serilog.AspNetCore.RequestLoggingMiddleware","RequestId":"0HNH9PO19I8CT:00000001","ConnectionId":"0HNH9PO19I8CT"}
2025-11-22 09:50:05.894 -04:00 [INF] HTTP GET /api/clients responded 404 in 11ms - Response: Empty {"SourceContext":"RealEstate.API.Middleware.RequestResponseLoggingMiddleware","RequestId":"0HNH9PO19I8CT:00000001","RequestPath":"/api/clients","ConnectionId":"0HNH9PO19I8CT"}
2025-11-22 09:50:28.592 -04:00 [INF] HTTP GET /api/v1.0/clients  - Request Body: Empty {"SourceContext":"RealEstate.API.Middleware.RequestResponseLoggingMiddleware","RequestId":"0HNH9PO19I8CT:00000002","RequestPath":"/api/v1.0/clients","ConnectionId":"0HNH9PO19I8CT"}
2025-11-22 09:50:28.608 -04:00 [INF] HTTP GET /api/v1.0/clients responded 200 in 10.7419 ms {"SourceContext":"Serilog.AspNetCore.RequestLoggingMiddleware","RequestId":"0HNH9PO19I8CT:00000002","ConnectionId":"0HNH9PO19I8CT"}
2025-11-22 09:50:28.612 -04:00 [INF] HTTP GET /api/v1.0/clients responded 200 in 20ms - Response: {"items":[{"id":1,"name":"Juan Perez","email":"juan.perez@example.com","phoneNumber":"555-0101"},{"id":2,"name":"Maria Garcia","email":"maria.garcia@example.com","phoneNumber":"555-0102"},{"id":3,"name":"Carlos Lopez","email":"carlos.lopez@example.com","phoneNumber":"555-0103"},{"id":7,"name":"Test Client","email":"test@example.com","phoneNumber":"555-1234"},{"id":8,"name":"Test Client API v1","email":"testv1@example.com","phoneNumber":"555-9999"},{"id":9,"name":"Pagination Test Client","email":"pagination@test.com","phoneNumber":"555-PAGI"}],"pageNumber":1,"pageSize":10,"totalCount":6,"totalPages":1,"hasPrevious":false,"hasNext":false} {"SourceContext":"RealEstate.API.Middleware.RequestResponseLoggingMiddleware","RequestId":"0HNH9PO19I8CT:00000002","RequestPath":"/api/v1.0/clients","ConnectionId":"0HNH9PO19I8CT"}
